PROGRAMNAME,PROGRAMURL,CATALOGNAME,LASTUPDATED,NAME,KEYWORDS,DESCRIPTION,SKU,MANUFACTURER,MANUFACTURERID,UPC,ISBN,CURRENCY,SALEPRICE,PRICE,RETAILPRICE,FROMPRICE,BUYURL,IMPRESSIONURL,IMAGEURL,ADVERTISERCATEGORY,THIRDPARTYID,THIRDPARTYCATEGORY,AUTHOR,ARTIST,TITLE,PUBLISHER,LABEL,FORMAT,SPECIAL,GIFT,PROMOTIONALTEXT,STARTDATE,ENDDATE,OFFLINE,ONLINE,INSTOCK,CONDITION,WARRANTY,STANDARDSHIPPINGCOST
argos.co.uk,http://www.argos.co.uk,Product Catalogue,16:07.1,ZINK hAppy - 1 Inch zRoll,"zink, 5288889, happy, inch, zroll","1 inch zRoll - Single. A 1inch wide roll of full colour, ink-free ZINK Paper. All the colour you need in a single, ink-free roll; A 1 inch wide zRoll contains 19 feet 5inch of full colour, Zero-Ink ZINK Paper. The zRoll features an easy-to-peel, acid-free, permanent adhesive backing. The 1 inch zRoll is great for return address labels, creating bookmarks, photo IDs, and thousands of other uses. For use with your ZINK hAppy or ZINK hAppy+ smart app printers. Manufacturers 2 year guarantee.",5288889,zink,5288889,8.51217E+11,,GBP,19.99,19.99,,,http://www.jdoqocy.com/click-8482294-10294381?url=http%3A%2F%2Fwww.argos.co.uk%2Fproduct%2F5288889,http://www.ftjcfx.com/image-8482294-10294381,http://media.4rgos.it/i/Argos/5288889_R_Z001A,Technology>Cameras and camcorders>Digital photo printers paper and ink>Digital photo printer paper and ink,,,,,,,,,,,,,,yes,no,no,,,
argos.co.uk,http://www.argos.co.uk,Product Catalogue,16:07.3,ZINK hAppy - 075 Inch zRoll,"zink, 5317420, happy, 075, inch, zroll","3/4 inch zRoll - Single. A 3/4 inch wide roll of full colour, ink-free ZINK Paper. All the colour you need in a single, ink-free roll; A 3/4 inch wide zRoll contains 19 feet 5 inch of full colour, Zero-Ink ZINK Paper. The zRoll features an easy-to-peel, acid-free, permanent adhesive backing. The 3/4 inch wide zRoll is great for greeting card personalization, power cord labels, labelling kitchen containers, and thousands of other uses. For use with your ZINK hAppy or ZINK hAppy+ smart app printers. Manufacturers 2 year guarantee.",5317420,zink,5317420,8.51217E+11,,GBP,19.99,19.99,,,http://www.kqzyfj.com/click-8482294-10294381?url=http%3A%2F%2Fwww.argos.co.uk%2Fproduct%2F5317420,http://www.ftjcfx.com/image-8482294-10294381,http://media.4rgos.it/i/Argos/5317420_R_Z001A,Technology>Cameras and camcorders>Digital photo printers paper and ink>Digital photo printer paper and ink,,,,,,,,,,,,,,yes,no,no,,,
argos.co.uk,http://www.argos.co.uk,Product Catalogue,16:07.4,ZINK hAppy Printer.,"zink, 5327764, happy, printer","ZINK hAppy Smart App Printer hAppy is the portable, Wi-Fi, app-accessory that allows you to print directly from smart phones and tablets. Just download the free ZINK Design & Print Studio app load a ZINK zRollTM), design, and then wirelessly print to the hAppy. Its compatible with iPhone, iPad, and iPod touch. HAppy is also compatible with Android smartphone and tablets and Amazon Kindle Fire tablets. HAppy works with Apple AirPrint and Google Cloud Print apps. Fast, full-color, ink-free printing in one zroll, using zink zero ink printing technology. Prints colour, black and white. Prints 1. Connectivity: Bluetooth, WiFi (with adaptor). Software included. Size H10.1, W11.8, D12.8cm.",5327764,Zink,5327764,8.15361E+11,,GBP,119.99,119.99,,,http://www.dpbolvw.net/click-8482294-10294381?url=http%3A%2F%2Fwww.argos.co.uk%2Fproduct%2F5327764,http://www.ftjcfx.com/image-8482294-10294381,http://media.4rgos.it/i/Argos/5327764_R_Z001A,Technology>Cameras and camcorders>Digital photo printers paper and ink>Digital photo printers,,,,,,,,,,,,,,yes,no,no,,,
argos.co.uk,http://www.argos.co.uk,Product Catalogue,16:07.5,ZINK hAppy - 2 Inch zRoll,"zink, 5388387, happy, inch, zroll","2 inch zRoll - Single. A 2inch wide roll of full colour, ink-free ZINK Paper. All the colour you need in a single, ink-free roll; A 2 inch wide zRoll contains 19 feet 5inch of full colour, Zero-Ink ZINK Paper. The zRoll features an easy-to-peel, acid-free, permanent adhesive backing. The 2 inch zRoll is great for making business cards, photo storage labels, greeting cards, mailing labels, and more. You can even personalize your smartphone; For use with your ZINK hAppy or ZINK hAppy+ Smart App Printers. Manufacturers 2 year guarantee.",5388387,zink,5388387,8.51217E+11,,GBP,20.99,20.99,,,http://www.tkqlhce.com/click-8482294-10294381?url=http%3A%2F%2Fwww.argos.co.uk%2Fproduct%2F5388387,http://www.ftjcfx.com/image-8482294-10294381,http://media.4rgos.it/i/Argos/5388387_R_Z001A,Technology>Cameras and camcorders>Digital photo printers paper and ink>Digital photo printer paper and ink,,,,,,,,,,,,,,yes,no,yes,,,
argos.co.uk,http://www.argos.co.uk,Product Catalogue,16:07.7,0.5 Inch zRoll for ZINK hAppy.,"zink, 5411429, inch, zroll, happy","1/2 inch zRoll - Single A 1/2 inch wide roll of full colour, ink-free ZINK Paper. All the colour you need in a single, ink-free roll; A 1/2 inch wide zRoll contains 19 feet 5 inch of full colour, Zero-Ink ZINK Paper. The zRoll features an easy-to-peel, acid-free, permanent adhesive backing. The 1/2 inch wide zRoll is great for file folders, borders, designing place settings, labelling spice jars and thousands of other uses. For use with your ZINK hAppy or ZINK hAppy+ smart app printers. Manufacturers 2 year guarantee.",5411429,Zink,5411429,8.51217E+11,,GBP,19.99,19.99,,,http://www.tkqlhce.com/click-8482294-10294381?url=http%3A%2F%2Fwww.argos.co.uk%2Fproduct%2F5411429,http://www.ftjcfx.com/image-8482294-10294381,http://media.4rgos.it/i/Argos/5411429_R_Z001A,Technology>Cameras and camcorders>Digital photo printers paper and ink>Digital photo printer paper and ink,,,,,,,,,,,,,,yes,no,no,,,
argos.co.uk,http://www.argos.co.uk,Product Catalogue,16:07.7,ZINK hAppy - 0375 Inch zRoll,"zink, 5412930, happy, 0375, inch, zroll","3/8 inch zRoll - Single A 3/8 inch wide roll of full colour, ink-free ZINK Paper. All the colour you need in a single, ink-free roll; A 3/8 inch wide zRoll contains 19 feet 5 inch of full colour, Zero-Ink ZINK Paper. The zRollTM features an easy-to-peel, acid-free, permanent adhesive backing. The 3/8 inch wide zRoll is great for personalizing smaller items, journaling, making jewellery, decorative trim and thousands of other uses. For use with your ZINK hAppy or ZINK hAppy+ smart app printers. Manufacturers 2 year guarantee.",5412930,zink,5412930,8.51217E+11,,GBP,19.99,21.99,,,http://www.anrdoezrs.net/click-8482294-10294381?url=http%3A%2F%2Fwww.argos.co.uk%2Fproduct%2F5412930,http://www.ftjcfx.com/image-8482294-10294381,http://media.4rgos.it/i/Argos/5412930_R_Z001A,Technology>Cameras and camcorders>Digital photo printers paper and ink>Digital photo printer paper and ink,,,,,,,,,,,,,,yes,no,no,,,
argos.co.uk,http://www.argos.co.uk,Product Catalogue,16:27.9,Zing StikBot Pets Blind Assortment - 4 Pack.,"zing, 7119695, stikbot, pets, blind, assortment, pack","StikBot Pets are unique, poseable and collectable figurines; With suction cup hands and feet, they can easily be positioned on any flat surface at multiple different angles. Download the free app to make your own exciting stop-frame animation movies. Blind pack could include a Monkey, Bull Dog, Dog or Cat in various colours. The multi award winning stikbots have suction cup hands and feet which allows them to be posed in numerous different ways. The StikBots limbs, torso and even neck can be positioned at multiple angles. StikBot pets make a great addition to movies and are fun for collectable play ; choose from bulldogs, dogs, cats or monkeys with four clear colours to collect. Includes the free StikBot stop frame animation app for iPhone or android to download and produce your own movies. Join the fun - film, pause and edit your StikBot movies with the free app then get sharing your creations online with #StikBot. Size H4.5cm. For ages 4 years and over. WARNING(S): Not suitable for children under 3 years old. Only for domestic use. To be used under the direct supervision of an adult.",7119695,Zing,7119695,5.06012E+12,,GBP,19.99,19.99,,,http://www.jdoqocy.com/click-8482294-10294381?url=http%3A%2F%2Fwww.argos.co.uk%2Fproduct%2F7119695,http://www.ftjcfx.com/image-8482294-10294381,http://media.4rgos.it/i/Argos/7119695_R_Z001A,Toys>Action figures and playsets,,,,,,,,,,,,,,yes,no,no,,,
argos.co.uk,http://www.argos.co.uk,Product Catalogue,15:58.0,Zinc - Combat BMX Accessories Set - Unisex,"zinc, 3335655, combat, bmx, accessories, set, unisex","Be safe and prepared for anything with this ultimate BMX Accessories Set. This pack includes a pro-style BMX helmet, bike lock, bike pump and an easily attachable skull light, with glowing eyes; Your kids can bike in style and stay safe all in one. Batteries required for the bike lights 2 x 220 mah lithium 2032 batteries. Its safety first, but style comes a close second. 11 air vents. Adjustable straps. Head size from 56 to 58cm. Quick-release buckle fastening. Suitable for 5 years and over.",3335655,Zinc.,3335655,5.03797E+12,,GBP,9.99,9.99,,,http://www.tkqlhce.com/click-8482294-10294381?url=http%3A%2F%2Fwww.argos.co.uk%2Fproduct%2F3335655,http://www.ftjcfx.com/image-8482294-10294381,http://media.4rgos.it/i/Argos/3335655_R_Z001A,Sports and leisure>Bikes and accessories>Cycle helmets,,,,,,,,,,,,,,yes,no,yes,,,
argos.co.uk,http://www.argos.co.uk,Product Catalogue,15:53.4,Zinc - Reg Skateboard,"zinc, 1395305, reg, skateboard","This Zinc Reg Skateboard features a 31in x 8in deck with a single kicktail that is perfect for the young skate enthusiast. The funky PVC wheels in blue and black match the striking graphic underneath the deck. Designed as an entry level board, Zinc Reg is designed to equip those eager to join the world of skateboarding. This skateboard with its fantastic graphics is ideal for the beginner boarder; Made of wood. 5 inch metal trucks. Abec 608z bearings. W20, D78cm. Maximum user weight: 50kg. For ages 5 years and over. WARNING(S): Not suitable for children under 3 years old. Only for domestic use. To be used under the direct supervision of an adult. Protective equipment (helmet, knee pads and elbow pads) should be worn, not to be used in traffic. This toy does not provide protection.",1395305,Zinc,1395305,5.03797E+12,,GBP,13.99,13.99,,,http://www.kqzyfj.com/click-8482294-10294381?url=http%3A%2F%2Fwww.argos.co.uk%2Fproduct%2F1395305,http://www.ftjcfx.com/image-8482294-10294381,http://media.4rgos.it/i/Argos/1395305_R_Z001A_UC1412099,Toys>Outdoor toys>Wheeled toys>Skateboards,,,,,,,,,,,,,,yes,no,yes,,,
argos.co.uk,http://www.argos.co.uk,Product Catalogue,15:53.6,Zinc - Adjustable Quad Skates - Pink,"zinc, 1457023, adjustable, quad, skates, pink","These funky blue and pink Zinc Adjustable Quad Skates are bound to be a hit when you take to the streets to whiz around and show off your moves. They are comfortable and easy to adjust, theyre suitable for shoe sizes 13-3 and fastened with two quick lock buckle fasteners. Quad skates. Shoe size: 13-3. D25.5cm. Maximum user weight: 60kg. For ages 6 years and over. WARNING(S): Not suitable for children under 3 years old. To be used under the direct supervision of an adult. Protective equipment (helmet, knee pads, elbow pads and wrist guards) should be worn, not to be used in traffic.",1457023,Zinc,1457023,5.03797E+12,,GBP,11.99,11.99,,,http://www.kqzyfj.com/click-8482294-10294381?url=http%3A%2F%2Fwww.argos.co.uk%2Fproduct%2F1457023,http://www.ftjcfx.com/image-8482294-10294381,http://media.4rgos.it/i/Argos/1457023_R_Z001A,Toys>Outdoor toys>Wheeled toys>Skates and inline skates,,,,,,,,,,,,,,yes,no,no,,,
argos.co.uk,http://www.argos.co.uk,Product Catalogue,15:53.8,Zinc - Adjustable Quad Skates - Black,"zinc, 1575747, adjustable, quad, skates, black","These cool black and orange Zinc Adjustable Quad Skates are bound to be a hit when you take to the streets to whiz around and show off your moves. They are comfortable and easy to adjust, theyre suitable for shoe sizes 13-3 and fastened with two quick lock buckle fasteners. Quad skates. Shoe size: 13-3. D25.5cm. Maximum user weight: 60kg. For ages 6 years and over. WARNING(S): Not suitable for children under 3 years old. Only for domestic use. To be used under the direct supervision of an adult. Protective equipment (helmet, knee pads, elbow pads and wrist guards) should be worn, not to be used in traffic.",1575747,Zinc,1575747,5.03797E+12,,GBP,11.99,11.99,,,http://www.anrdoezrs.net/click-8482294-10294381?url=http%3A%2F%2Fwww.argos.co.uk%2Fproduct%2F1575747,http://www.ftjcfx.com/image-8482294-10294381,http://media.4rgos.it/i/Argos/1575747_R_Z001A,Toys>Outdoor toys>Wheeled toys>Skates and inline skates,,,,,,,,,,,,,,yes,no,yes,,,
argos.co.uk,http://www.argos.co.uk,Product Catalogue,15:53.8,Zinc - Outlaw Flame - Scooter - Black,"zinc, 1589733, outlaw, flame, scooter, black","The Outlaw is no standard scooter. Turn up the heat with a real flame effect near the rear wheel so your friends can see you blaze by; Features real flame effect on rear wheel. 2 wheels. Folds for storage. Anti-slip footplate. Easy grip handles. Adjustable handlebar height. Rear footbrake. Size H81, W32cm. Weight 2.5kg. Maximum user weight: 50kg. Supplied assembled. Batteries required: 3 x AAA (not included). For ages 5 years and over. WARNING(S): Not suitable for children under 3 years old. Only for domestic use. To be used under the direct supervision of an adult. Protective equipment (helmet, knee pads and elbow pads) should be worn, not to be used in traffic. This toy does not provide protection.",1589733,Zinc,1589733,5.03797E+12,,GBP,29.99,29.99,,,http://www.tkqlhce.com/click-8482294-10294381?url=http%3A%2F%2Fwww.argos.co.uk%2Fproduct%2F1589733,http://www.ftjcfx.com/image-8482294-10294381,http://media.4rgos.it/i/Argos/1589733_R_Z001A,Toys>Outdoor toys>Wheeled toys>Scooters,,,,,,,,,,,,,,yes,no,yes,,,
argos.co.uk,http://www.argos.co.uk,Product Catalogue,15:56.3,Zinc - Inline Roller Skates 13-3 - Pink,"zinc, 2754598, inline, roller, skates, 133, pink","Easily adjustable sizes between 13 - 03. Rear brake blocks help build confidence during the early stages of learning to skate. Cushion lining for comfort. Inline skates. Shoe size: 13-3. Cushion lining for comfort. Weight 2kg. Maximum user weight: 50kg. For ages 5 years and over. WARNING(S): Not suitable for children under 3 years old. Only for domestic use. To be used under the direct supervision of an adult. Protective equipment (helmet, knee pads, elbow pads and wrist guards) should be worn, not to be used in traffic.",2754598,Zinc,2754598,5.03797E+12,,GBP,10.99,10.99,,,http://www.jdoqocy.com/click-8482294-10294381?url=http%3A%2F%2Fwww.argos.co.uk%2Fproduct%2F2754598,http://www.ftjcfx.com/image-8482294-10294381,http://media.4rgos.it/i/Argos/2754598_R_Z001A,Toys>Outdoor toys>Wheeled toys>Skates and inline skates,,,,,,,,,,,,,,yes,no,no,,,
argos.co.uk,http://www.argos.co.uk,Product Catalogue,15:56.7,Zinc - Inline Roller Skates 13-3 - Blue,"zinc, 2877121, inline, roller, skates, 133, blue","Easily adjustable sizes between 13 - 03. Rear brake blocks help build confidence during the early stages of learning to skate. Cushion lining for comfort. Inline skates. Shoe size: 13-3. Cushion lining for comfort. Weight 2kg. Maximum user weight: 50kg. For ages 5 years and over. WARNING(S): Not suitable for children under 3 years old. Only for domestic use. To be used under the direct supervision of an adult. Protective equipment (helmet, knee pads, elbow pads and wrist guards) should be worn, not to be used in traffic.",2877121,Zinc,2877121,5.03797E+12,,GBP,7.99,7.99,,,http://www.dpbolvw.net/click-8482294-10294381?url=http%3A%2F%2Fwww.argos.co.uk%2Fproduct%2F2877121,http://www.ftjcfx.com/image-8482294-10294381,http://media.4rgos.it/i/Argos/2877121_R_Z001A,Toys>Outdoor toys>Wheeled toys>Skates and inline skates,,,,,,,,,,,,,,yes,no,no,,,
argos.co.uk,http://www.argos.co.uk,Product Catalogue,15:58.0,Zinc - Protection - Bike Safety Pads,"zinc, 3334797, protection, bike, safety, pads","The ultimate solution for keeping kids graze free. The Zinc Protection Bike Safety Pads keep knees, elbows and wrists out of harms way. Great for use when biking, skating, boarding or scootering. Includes knee, elbow and wrist protection pads. Protection for skating, skateboarding, scootering and biking. Adjustable child friendly straps. Skate accessories. For ages 3 years and over. WARNING(S): Not suitable for children under 3 years old. To be used under the direct supervision of an adult.",3334797,Zinc,3334797,5.03797E+12,,GBP,9.99,9.99,,,http://www.dpbolvw.net/click-8482294-10294381?url=http%3A%2F%2Fwww.argos.co.uk%2Fproduct%2F3334797,http://www.ftjcfx.com/image-8482294-10294381,http://media.4rgos.it/i/Argos/3334797_R_Z001A_UC1573651,Sports and leisure>Bikes and accessories>Cycle helmets,,,,,,,,,,,,,,yes,no,yes,,,
argos.co.uk,http://www.argos.co.uk,Product Catalogue,15:58.0,Zinc - Full Face - Bike Helmet - Unisex,"zinc, 3334807, full, face, bike, helmet, unisex","Protect yourself properly with this Zinc bike helmet, which offers full head and face protection. A sleek design, which features 17 air vents make it comfortable and breathable to wear whilst cycling. Full head and face protection. 17 air vents. Adjustable straps. Head size from 54 to 58cm. Quick-release buckle fastening. Suitable for 12 years and over.",3334807,Zinc,3334807,,,GBP,24.99,29.99,,,http://www.dpbolvw.net/click-8482294-10294381?url=http%3A%2F%2Fwww.argos.co.uk%2Fproduct%2F3334807,http://www.ftjcfx.com/image-8482294-10294381,http://media.4rgos.it/i/Argos/3334807_R_Z001A,Sports and leisure>Bikes and accessories>Cycle helmets,,,,,,,,,,,,,,yes,no,yes,,,
argos.co.uk,http://www.argos.co.uk,Product Catalogue,15:58.0,Zinc - Bike Helmet - Unisex,"zinc, 3334814, bike, helmet, unisex","The Zinc Bike Helmet features a cool, slick design and comes with a sticker sheet, which allows you to add that personal touch. Look stylish and stay safe whilst riding your bikes, skateboards and scooters. Includes a sticker sheet for customisation. 11 air vents. Adjustable straps. Head size from 54 to 58cm. Strap fastening. Suitable for 12 years and over.",3334814,Zinc,3334814,5.03797E+12,,GBP,14.99,14.99,,,http://www.tkqlhce.com/click-8482294-10294381?url=http%3A%2F%2Fwww.argos.co.uk%2Fproduct%2F3334814,http://www.ftjcfx.com/image-8482294-10294381,http://media.4rgos.it/i/Argos/3334814_R_Z001A,Sports and leisure>Bikes and accessories>Cycle helmets,,,,,,,,,,,,,,yes,no,yes,,,
argos.co.uk,http://www.argos.co.uk,Product Catalogue,15:58.0,Zinc - Zoomi Boys - Scooter,"zinc, 3385870, zoomi, boys, scooter","The Zinc Zoomi Boys Scooter features colourful graphic prints is a perfect beginner scooter for everyday use. It has a rear foot brake and anti-slip handles for safety. Its non-folding rigid frame makes it durable and its Abec 5 bearings provide a smooth ride. Suitable for ages 4 years and over, it requires adult supervision. Perfect for those back to school days; Lightweight plastic deck with fully printed graphics on a non slip surface. Non folding rigid frame for extra durability. 125mm PVC Wheels. ABEC 5 bearings for a smooth ride. 2 wheels. Anti-slip footplate. Easy grip handles. Rear footbrake. Size H72, W26cm. Weight 2.3kg. Maximum user weight: 50kg. Minimal assembly. (not included). For ages 4 years and over. WARNING(S): Not suitable for children under 3 years old. To be used under the direct supervision of an adult. Protective equipment (helmet, knee pads, elbow pads and wrist guards) should be worn, not to be used in traffic. This toy does not provide protection.",3385870,Zinc,3385870,5.03797E+12,,GBP,17.99,17.99,,,http://www.dpbolvw.net/click-8482294-10294381?url=http%3A%2F%2Fwww.argos.co.uk%2Fproduct%2F3385870,http://www.ftjcfx.com/image-8482294-10294381,http://media.4rgos.it/i/Argos/3385870_R_Z001A_UC17601154,Toys>Outdoor toys>Wheeled toys>Scooters,,,,,,,,,,,,,,yes,no,yes,,,
argos.co.uk,http://www.argos.co.uk,Product Catalogue,15:58.0,Zinc - Zoomi Girls - Scooter,"zinc, 3386563, zoomi, girls, scooter","The Zinc Zoomi Girls Scooter features colourful graphic prints is a perfect beginner scooter for everyday use. It has a rear foot brake and anti-slip handles for safety. Its non-folding rigid frame makes it durable and its Abec 5 bearings provide a smooth ride. Suitable for ages 4 years and over, it requires adult supervision. The Zinc Zoomi is perfect for those back to school days; Lightweight plastic deck with fully printed graphics on a non slip surface. Non folding rigid frame for extra durability. 125mm PVC Wheels. Abec 5 bearings for a smooth ride. 2 wheels. Anti-slip footplate. Easy grip handles. Rear footbrake. Size H72, W26cm. Weight 2.3kg. Maximum user weight: 50kg. Minimal assembly. (not included). For ages 4 years and over. WARNING(S): Not suitable for children under 3 years old. To be used under the direct supervision of an adult. Protective equipment (helmet, knee pads, elbow pads and wrist guards) should be worn, not to be used in traffic. This toy does not provide protection.",3386563,Zinc,3386563,5.03797E+12,,GBP,17.99,17.99,,,http://www.kqzyfj.com/click-8482294-10294381?url=http%3A%2F%2Fwww.argos.co.uk%2Fproduct%2F3386563,http://www.ftjcfx.com/image-8482294-10294381,http://media.4rgos.it/i/Argos/3386563_R_Z001A_UC17601155,Toys>Outdoor toys>Wheeled toys>Scooters,,,,,,,,,,,,,,yes,no,yes,,,
argos.co.uk,http://www.argos.co.uk,Product Catalogue,15:59.6,Zinc - Street - Scooter,"zinc, 3822120, street, scooter","Scoot around in style with this classic Zinc Street Scooter. It features a rear foot brake, adjustable handlebar height and folds for easy transportation. Perfect for carrying around the skate parks and streets. Rear footbrake. Foldable for storage. PVC Wheels. Non slip footplate. Non-adjustable handlebar height. 2 wheels. Folds for storage. Anti-slip footplate. Easy grip handles. Rear footbrake. Size H80, W28cm. Weight 2.52kg. Maximum user weight: 50kg. Minimal assembly. (not included). For ages 5 years and over. WARNING(S): Not suitable for children under 3 years old. To be used under the direct supervision of an adult. Protective equipment (helmet, knee pads, elbow pads and wrist guards) should be worn, not to be used in traffic. This toy does not provide protection.",3822120,Zinc,3822120,5.03797E+12,,GBP,22.99,22.99,,,http://www.anrdoezrs.net/click-8482294-10294381?url=http%3A%2F%2Fwww.argos.co.uk%2Fproduct%2F3822120,http://www.ftjcfx.com/image-8482294-10294381,http://media.4rgos.it/i/Argos/3822120_R_Z001A,Toys>Outdoor toys>Wheeled toys>Scooters,,,,,,,,,,,,,,yes,no,no,,,
argos.co.uk,http://www.argos.co.uk,Product Catalogue,15:59.9,Zinc - DIY Skateboard,"zinc, 3896022, diy, skateboard","Make it your own with the Zinc DIY Skateboard. Customise your own board with the sticker sheet included. A double kicktail board perfect for beginners. Includes 1 x A5 Sticker Sheet to customise your board. Double kicktail board. Griptape surface for a better feel and better grip. Made of wood. 5 Inch metal trucks. Abec 3 bearings. W78.74, D20.32cm. Maximum user weight: 50kg. Supplied Assembled. For ages 5 years and over. WARNING(S): Not suitable for children under 3 years old. To be used under the direct supervision of an adult. Protective equipment (helmet, knee pads, elbow pads and wrist guards) should be worn, not to be used in traffic. This toy does not provide protection.",3896022,Zinc,3896022,5.03797E+12,,GBP,15.99,15.99,,,http://www.dpbolvw.net/click-8482294-10294381?url=http%3A%2F%2Fwww.argos.co.uk%2Fproduct%2F3896022,http://www.ftjcfx.com/image-8482294-10294381,http://media.4rgos.it/i/Argos/3896022_R_Z001A,Toys>Outdoor toys>Wheeled toys>Skateboards,,,,,,,,,,,,,,yes,no,yes,,,
argos.co.uk,http://www.argos.co.uk,Product Catalogue,16:00.0,Zinc - Prophet Stunt - Scooter,"zinc, 3899005, prophet, stunt, scooter","Stand out from the rest with the Prophet stunt scooter. With its awesome design and cool blue batwing style handlebars, no one will miss you showing off your skills. The Prophet features 100mm high impact PU wheels, high speed ABEC 9 bearings, rear fender brake and quad clamp, making it an ideal stunt scooter to perfect your skills. Quad Clamp. Rear Fender brake for a smoother stop. 48cm wide Batwing style bars. Abec 9 bearings for a smoother ride. 100mm Alloy Core wheels. 2 wheels. Anti-slip footplate. Easy grip handles. Rear footbrake. Size H85, W48cm. Weight 3.9kg. Maximum user weight: 100kg. Minimal assembly. (not included). For ages 8 years and over. WARNING(S): Not suitable for children under 3 years old. To be used under the direct supervision of an adult. Protective equipment (helmet, knee pads, elbow pads and wrist guards) should be worn, not to be used in traffic. This toy does not provide protection.",3899005,Zinc,3899005,5.03797E+12,,GBP,49.99,59.99,,,http://www.kqzyfj.com/click-8482294-10294381?url=http%3A%2F%2Fwww.argos.co.uk%2Fproduct%2F3899005,http://www.ftjcfx.com/image-8482294-10294381,http://media.4rgos.it/i/Argos/3899005_R_Z001A,Toys>Outdoor toys>Wheeled toys>Scooters,,,,,,,,,,,,,,yes,no,yes,,,
argos.co.uk,http://www.argos.co.uk,Product Catalogue,16:00.7,Zinc - T-Motion Tri - Black Scooter,"zinc, 4026925, tmotion, tri, black, scooter","Ideal as a little ones first scooter, the Zinc T-Motion Tri Scooter features 3 wheels for extra stability and rock n; roll steering. This Scooter from Zinc is perfect for your little one to learn the basics and whizz away. Rear footbrake. Adjustable handlebar height. PVC wheels. Non slip footplate. Adjusts up to 90cm high. 3 wheels. Anti-slip footplate. Easy grip handles. Adjustable handlebar height. Rear footbrake. Size H90, W28cm. Weight 2.48kg. Maximum user weight: 50kg. Minimal assembly. (not included). For ages 5 years and over. WARNING(S): Not suitable for children under 3 years old. To be used under the direct supervision of an adult. Protective equipment (helmet, knee pads, elbow pads and wrist guards) should be worn, not to be used in traffic. This toy does not provide protection.",4026925,Zinc,4026925,5.03797E+12,,GBP,34.99,44.99,,,http://www.tkqlhce.com/click-8482294-10294381?url=http%3A%2F%2Fwww.argos.co.uk%2Fproduct%2F4026925,http://www.ftjcfx.com/image-8482294-10294381,http://media.4rgos.it/i/Argos/4026925_R_Z001A,Toys>Outdoor toys>Wheeled toys>Scooters,,,,,,,,,,,,,,yes,no,yes,,,
argos.co.uk,http://www.argos.co.uk,Product Catalogue,16:00.9,Zinc - Backbone Stunt - Scooter,"zinc, 4087445, backbone, stunt, scooter","This classically styled stunt scooter from Zinc features T-shape handlebars, a rear fender brake, 100mm high impact PU wheels and ABEC 7 high speed metal bearings. The striking design of the rotating 360 rotating non-slip deck really makes you a cut above the rest when in the air. Perfect for those back to school days; 100mm Plastic core wheels - providing a lighter offering to those used by pros, making them ideal for beginners. Non folding rigid frame for extra durability. Double Clamp. Rear spring brake. 2 wheels. Anti-slip footplate. Easy grip handles. Rear footbrake. Size H82, W43cm. Weight 2.9kg. Maximum user weight: 100kg. Minimal assembly. (not included). For ages 8 years and over. WARNING(S): Not suitable for children under 3 years old. To be used under the direct supervision of an adult. Protective equipment (helmet, knee pads, elbow pads and wrist guards) should be worn, not to be used in traffic. This toy does not provide protection.",4087445,Zinc,4087445,5.03797E+12,,GBP,29.99,39.99,,,http://www.kqzyfj.com/click-8482294-10294381?url=http%3A%2F%2Fwww.argos.co.uk%2Fproduct%2F4087445,http://www.ftjcfx.com/image-8482294-10294381,http://media.4rgos.it/i/Argos/4087445_R_Z001A,Toys>Outdoor toys>Wheeled toys>Scooters,,,,,,,,,,,,,,yes,no,yes,,,
argos.co.uk,http://www.argos.co.uk,Product Catalogue,16:01.0,Zinc - Retro Mini Skateboard,"zinc, 4119870, retro, mini, skateboard","Putting the retro back into skating, the Zinc Retro Mini Skateboard may be small but stunts can still be as big as you like. Size really doesnt matter when it comes to pulling grabs and grinding rails with this little 4 wheeler. Textured surface for great gripping. 50 x 36 PVC Wheels. Made of polypropylene. Pp trucks. 608z bearings. W43.18, D12.7cm. Maximum user weight: 50kg. Supplied Assembled. For ages 5 years and over. WARNING(S): Not suitable for children under 3 years old. To be used under the direct supervision of an adult. Protective equipment (helmet, knee pads, elbow pads and wrist guards) should be worn, not to be used in traffic. This toy does not provide protection.",4119870,Zinc,4119870,5.03797E+12,,GBP,11.99,11.99,,,http://www.dpbolvw.net/click-8482294-10294381?url=http%3A%2F%2Fwww.argos.co.uk%2Fproduct%2F4119870,http://www.ftjcfx.com/image-8482294-10294381,http://media.4rgos.it/i/Argos/4119870_R_Z001A,Toys>Outdoor toys>Wheeled toys>Skateboards,,,,,,,,,,,,,,yes,no,yes,,,
argos.co.uk,http://www.argos.co.uk,Product Catalogue,16:01.1,Zinc - T-Motion Tri - Blue Scooter,"zinc, 4127415, tmotion, tri, blue, scooter","Ideal as a little ones first scooter, the Zinc T-Motion Tri Scooter features 3 wheels for extra stability and rock n; roll steering. This Scooter from Zinc is perfect for your little one to learn the basics and whizz away. Rear footbrake. Adjustable handlebar height. PVC wheels. Non slip footplate. Adjusts up to 90cm high. 3 wheels. Anti-slip footplate. Easy grip handles. Adjustable handlebar height. Rear footbrake. Size H90, W28cm. Weight 2.48kg. Maximum user weight: 50kg. Minimal assembly. (not included). For ages 5 years and over. WARNING(S): Not suitable for children under 3 years old. To be used under the direct supervision of an adult. Protective equipment (helmet, knee pads, elbow pads and wrist guards) should be worn, not to be used in traffic. This toy does not provide protection.",4127415,Zinc,4127415,5.03797E+12,,GBP,34.99,44.99,,,http://www.anrdoezrs.net/click-8482294-10294381?url=http%3A%2F%2Fwww.argos.co.uk%2Fproduct%2F4127415,http://www.ftjcfx.com/image-8482294-10294381,http://media.4rgos.it/i/Argos/4127415_R_Z001A,Toys>Outdoor toys>Wheeled toys>Scooters,,,,,,,,,,,,,,yes,no,yes,,,
argos.co.uk,http://www.argos.co.uk,Product Catalogue,16:05.3,Zinc - Non Folding Inline - Scooter - Girls,"zinc, 4971104, non, folding, inline, scooter, girls","This strong and solid frame design is ideal for beginners. Learn to scoot on Zincs Non Folding Inline Scooter and youll soon be whizzing away. A rear footbrake, soft foam grips and anti-slip grip tape ensure a safe ride. Puncture proof wheels for hours of fun. Rear footbrake for safe braking. Strong solid frame which is perfect for beginners learning how to scoot. Soft foam grips and anti-slip grip tape. 2 wheels. Anti-slip footplate. Easy grip handles. Rear footbrake. Size H73, W27cm. Weight 2.1kg. Maximum user weight: 50kg. Minimal assembly. For ages 3 years and over. WARNING(S): Not suitable for children under 3 years old. To be used under the direct supervision of an adult. Protective equipment (helmet, knee pads and elbow pads) should be worn, not to be used in traffic. This toy does not provide protection.",4971104,Zinc,4971104,5.03797E+12,,GBP,12.99,12.99,,,http://www.anrdoezrs.net/click-8482294-10294381?url=http%3A%2F%2Fwww.argos.co.uk%2Fproduct%2F4971104,http://www.ftjcfx.com/image-8482294-10294381,http://media.4rgos.it/i/Argos/4971104_R_Z001A,Toys>Outdoor toys>Wheeled toys>Scooters,,,,,,,,,,,,,,yes,no,yes,,,
argos.co.uk,http://www.argos.co.uk,Product Catalogue,16:05.4,Zinc - Non Folding Light Up - Scooter - Boys,"zinc, 4978248, non, folding, light, scooter, boys","Ride with a disco at your feet with the Zinc Non Folding Light Up Scooter; Light up the way and impress all your friends with wheels that flash as you ride. The strong solid frame is ideal for beginners and perfect for kids wanting to stand out. Its a great way to combine creativity, character and outdoor fun; Its also non-folding for extra sturdiness for younger riders. Flashing light up wheels that dont require batteries. Rear footbrake for safe braking. Strong solid frame which is perfect for beginners learning how to scoot. Soft foam grips and anti-slip grip tape. 2 wheels. Anti-slip footplate. Easy grip handles. Rear footbrake. Size H73, W27cm. Weight 2.1kg. Maximum user weight: 50kg. Minimal assembly. For ages 3 years and over. WARNING(S): Not suitable for children under 3 years old. To be used under the direct supervision of an adult. Protective equipment (helmet, knee pads and elbow pads) should be worn, not to be used in traffic. This toy does not provide protection.",4978248,Zinc,4978248,5.03797E+12,,GBP,19.99,19.99,,,http://www.tkqlhce.com/click-8482294-10294381?url=http%3A%2F%2Fwww.argos.co.uk%2Fproduct%2F4978248,http://www.ftjcfx.com/image-8482294-10294381,http://media.4rgos.it/i/Argos/4978248_R_Z001A,Toys>Outdoor toys>Wheeled toys>Scooters,,,,,,,,,,,,,,yes,no,yes,,,
argos.co.uk,http://www.argos.co.uk,Product Catalogue,16:05.4,Zinc - folding Inline - Scooter for Girls,"zinc, 4982416, folding, inline, scooter, girls","Ride in style with the Zinc Folding Inline Scooter. The adjustable height handlebars mean this scooter will grow with you and the easy to use folding mechanism is great for transportation and storage. The soft foam grips and anti-slip grip tape make this scooter a safe and comfortable ride. Foldable scooter for easy transportation and storage. Rear footbrake is safe braking. Adjustable height handlebars ensure the scooterll fit you perfectly. Soft foam grips and anti-slip grip tape. 2 wheels. Folds for storage. Anti-slip footplate. Easy grip handles. Adjustable handlebar height. Rear footbrake. Size H84, W32cm. Weight 2.4kg. Maximum user weight: 50kg. Minimal assembly. For ages 5 year and over. WARNING(S): Not suitable for children under 3 years old. Only for domestic use. To be used under the direct supervision of an adult. Protective equipment (helmet, knee pads and elbow pads) should be worn, not to be used in traffic. This toy does not provide protection.",4982416,Zinc,4982416,5.03797E+12,,GBP,14.99,14.99,,,http://www.anrdoezrs.net/click-8482294-10294381?url=http%3A%2F%2Fwww.argos.co.uk%2Fproduct%2F4982416,http://www.ftjcfx.com/image-8482294-10294381,http://media.4rgos.it/i/Argos/4982416_R_Z001A,Toys>Outdoor toys>Wheeled toys>Scooters,,,,,,,,,,,,,,yes,no,yes,,,
argos.co.uk,http://www.argos.co.uk,Product Catalogue,16:05.5,Zinc - Non Folding Inline - Scooter - Boys,"zinc, 4994923, non, folding, inline, scooter, boys","This strong and solid frame design is ideal for beginners. Learn to scoot on Zincs Non Folding Inline Scooter and youll soon be whizzing away. A rear footbrake, soft foam grips and anti-slip grip tape ensure a safe ride. Puncture proof wheels for hours of fun. Rear footbrake for safe braking. Strong solid frame which is perfect for beginners learning how to scoot. Soft foam grips and anti-slip grip tape. 2 wheels. Anti-slip footplate. Easy grip handles. Rear footbrake. Size H73, W27cm. Weight 2.1kg. Maximum user weight: 50kg. Minimal assembly. (not included). For ages 3 years and over. WARNING(S): Not suitable for children under 3 years old. To be used under the direct supervision of an adult. Protective equipment (helmet, knee pads and elbow pads) should be worn, not to be used in traffic. This toy does not provide protection.",4994923,Zinc,4994923,5.03797E+12,,GBP,12.99,12.99,,,http://www.kqzyfj.com/click-8482294-10294381?url=http%3A%2F%2Fwww.argos.co.uk%2Fproduct%2F4994923,http://www.ftjcfx.com/image-8482294-10294381,http://media.4rgos.it/i/Argos/4994923_R_Z001A,Toys>Outdoor toys>Wheeled toys>Scooters,,,,,,,,,,,,,,yes,no,yes,,,
argos.co.uk,http://www.argos.co.uk,Product Catalogue,16:05.5,Zinc - Non Folding Light Up - Scooter - Girls,"zinc, 5011537, non, folding, light, scooter, girls","Ride the streets in style and light up the way. With light up wheels and strong solid frame this scooter is ideal for beginners. This non-folding inline scooter is perfect for kids wanting to stand out. Its a great way to combine creativity, character and outdoor fun; Its also non-folding for extra sturdiness for younger riders. Flashing light up wheels that dont require batteries. Rear footbrake for safe braking. Strong solid frame which is perfect for beginners learning how to scoot. Soft foam grips and anti-slip grip tape. 2 wheels. Anti-slip footplate. Easy grip handles. Rear footbrake. Size H73, W27cm. Weight 2.1kg. Maximum user weight: 50kg. Minimal assembly. For ages 3 years and over. WARNING(S): Not suitable for children under 3 years old. Only for domestic use. To be used under the direct supervision of an adult. Protective equipment (helmet, knee pads and elbow pads) should be worn, not to be used in traffic. This toy does not provide protection.",5011537,Zinc,5011537,5.03797E+12,,GBP,19.99,19.99,,,http://www.anrdoezrs.net/click-8482294-10294381?url=http%3A%2F%2Fwww.argos.co.uk%2Fproduct%2F5011537,http://www.ftjcfx.com/image-8482294-10294381,http://media.4rgos.it/i/Argos/5011537_R_Z001A,Toys>Outdoor toys>Wheeled toys>Scooters,,,,,,,,,,,,,,yes,no,yes,,,
argos.co.uk,http://www.argos.co.uk,Product Catalogue,16:05.7,Zinc - Folding Inline - Scooter - Boys,"zinc, 5034095, folding, inline, scooter, boys","Ride in style with the Zinc Folding Inline Scooter. The adjustable height handlebars mean this scooter will grow with you and the easy to use folding mechanism is great for transportation and storage. The soft foam grips and anti-slip grip tape make this scooter a safe and comfortable ride. Foldable scooter for easy transportation and storage. Rear footbrake for safe braking. Adjustable height handlebars ensure the scooterll fit you perfectly. Soft foam grips and anti-slip grip tape. 2 wheels. Folds for storage. Anti-slip footplate. Easy grip handles. Adjustable handlebar height. Rear footbrake. Size H84, W32cm. Weight 2.4kg. Maximum user weight: 50kg. Minimal assembly. For ages 5 year and over. WARNING(S): Not suitable for children under 3 years old. Only for domestic use. To be used under the direct supervision of an adult. Protective equipment (helmet, knee pads and elbow pads) should be worn, not to be used in traffic. This toy does not provide protection.",5034095,Zinc,5034095,5.03797E+12,,GBP,14.99,14.99,,,http://www.tkqlhce.com/click-8482294-10294381?url=http%3A%2F%2Fwww.argos.co.uk%2Fproduct%2F5034095,http://www.ftjcfx.com/image-8482294-10294381,http://media.4rgos.it/i/Argos/5034095_R_Z001A,Toys>Outdoor toys>Wheeled toys>Scooters,,,,,,,,,,,,,,yes,no,yes,,,
argos.co.uk,http://www.argos.co.uk,Product Catalogue,16:07.3,Zinc - Lithium Volt 120 Electric - Scooter,"zinc, 5324891, lithium, volt, 120, electric, scooter","Experience the ultimate ride of the Zinc Volt Lithium Volt 120 Electric Scooter. This twist-and-go start up Zinc electric scooter has durable polyurethane wheels and gets you up to speeds of 12mph. Designed with easy grip handles and an anti-slip footplate you will have great stability. With minimal assembly and a lithium battery you can start playing faster with a run time of up to 60 minutes. The scooter gives you a fast recharge time so you can use it time after time for endless fun. Lightweight lithium scooter for easy control. Twist-and-go acceleration with speeds up to 12mph. Rapid recharge for instant use. Hand operated rear disc braking for safe riding. Up to 60 minutes run time. Anti-slip footplate. Easy grip handles. Size H89, W18cm. Weight 8.5kg. Maximum user weight: 70kg. Minimal assembly. Batteries required: 1 x Li-Ion (included). For ages 8 year and over. WARNING(S): Not suitable for children under 3 years old. To be used under the direct supervision of an adult. Protective equipment (helmet, knee pads and elbow pads) should be worn, not to be used in traffic. This toy does not provide protection.",5324891,Zinc,5324891,5.03797E+12,,GBP,139.99,169.99,,,http://www.kqzyfj.com/click-8482294-10294381?url=http%3A%2F%2Fwww.argos.co.uk%2Fproduct%2F5324891,http://www.ftjcfx.com/image-8482294-10294381,http://media.4rgos.it/i/Argos/5324891_R_Z001A,Toys>Outdoor toys>Wheeled toys>Scooters,,,,,,,,,,,,,,yes,no,yes,,,
argos.co.uk,http://www.argos.co.uk,Product Catalogue,16:08.6,Zinc - Detour Stunt - Scooter - Blue,"zinc, 5485974, detour, stunt, scooter, blue","The Detour is ideal for beginners looking to join the world of stunt scooting. The 100mm plastic core wheels gives the scooter a lighter feel than those used by pros, making this perfect for your first stunt scooter. The non-folding rigid frame provides extra durability whilst the 360 rotating footplate gives you the freedom to practice new tricks. Pro Style T Bars. 100mm PU Wheels. ABEC 5 Bearings. Dual clamp. Rear spring brake. Anti-slip footplate. Easy grip handles. Rear footbrake. Size H82, W43cm. Weight 2.8kg. Maximum user weight: 60kg. Minimal assembly. For ages 6 year and over. WARNING(S): Not suitable for children under 3 years old. To be used under the direct supervision of an adult. Protective equipment (helmet, knee pads and elbow pads) should be worn, not to be used in traffic. This toy does not provide protection.",5485974,Zinc,5485974,5.03797E+12,,GBP,24.99,24.99,,,http://www.kqzyfj.com/click-8482294-10294381?url=http%3A%2F%2Fwww.argos.co.uk%2Fproduct%2F5485974,http://www.ftjcfx.com/image-8482294-10294381,http://media.4rgos.it/i/Argos/5485974_R_Z001A,Toys>Outdoor toys>Wheeled toys>Scooters,,,,,,,,,,,,,,yes,no,yes,,,
argos.co.uk,http://www.argos.co.uk,Product Catalogue,16:08.7,Zinc - Detour Stunt - Scooter - Pink,"zinc, 5489482, detour, stunt, scooter, pink","The Detour is ideal for beginners looking to join the world of stunt scooting. The 100mm plastic core wheels gives the scooter a lighter feel than those used by pros, making this perfect for your first stunt scooter. The non-folding rigid frame provides extra durability whilst the 360 rotating footplate gives you the freedom to practice new tricks. Pro Stle T Bars. 100mm PU wheels. ABEC 5 Bearings. Dual clamp. Rear spring brake. Anti-slip footplate. Easy grip handles. Rear footbrake. Size H82, W43cm. Weight 2.8kg. Maximum user weight: 60kg. Minimal assembly. For ages 6 year and over. WARNING(S): Not suitable for children under 3 years old. To be used under the direct supervision of an adult. Protective equipment (helmet, knee pads and elbow pads) should be worn, not to be used in traffic. This toy does not provide protection.",5489482,Zinc,5489482,5.03797E+12,,GBP,24.99,24.99,,,http://www.jdoqocy.com/click-8482294-10294381?url=http%3A%2F%2Fwww.argos.co.uk%2Fproduct%2F5489482,http://www.ftjcfx.com/image-8482294-10294381,http://media.4rgos.it/i/Argos/5489482_R_Z001A,Toys>Outdoor toys>Wheeled toys>Scooters,,,,,,,,,,,,,,yes,no,yes,,,
argos.co.uk,http://www.argos.co.uk,Product Catalogue,16:08.7,Zinc - Lithium E-Drift Electric - Scooter,"zinc, 5495593, lithium, edrift, electric, scooter","This amazing E-Drift is sure to be the scooter for your next adventure. With a quick charge and a longer battery lifespan of up to 90 mins, experience the thrill of this twist-and-go start up Zinc electric scooter. The E-Drift is easy to assemble which means you can start the fun faster and the lean n; steer motion will give you smooth steering action. Lightweight lithium scooter for easy control. Twist-and-go acceleration with speeds up to 8mph. Rapid recharge for instant use. Smooth carving steering action. Up to 90 minutes run time. Anti-slip footplate. Easy grip handles. Rear footbrake. Size H86, W35cm. Weight 8kg. Minimal assembly. Batteries required: 1 x Li-Ion (included). For ages 8 year and over. WARNING(S): Not suitable for children under 3 years old. To be used under the direct supervision of an adult. Protective equipment (helmet, knee pads and elbow pads) should be worn, not to be used in traffic. This toy does not provide protection.",5495593,Zinc,5495593,5.03797E+12,,GBP,70.99,70.99,,,http://www.dpbolvw.net/click-8482294-10294381?url=http%3A%2F%2Fwww.argos.co.uk%2Fproduct%2F5495593,http://www.ftjcfx.com/image-8482294-10294381,http://media.4rgos.it/i/Argos/5495593_R_Z001A,Toys>Outdoor toys>Wheeled toys>Scooters,,,,,,,,,,,,,,yes,no,no,,,
argos.co.uk,http://www.argos.co.uk,Product Catalogue,16:24.4,Zinc Havoc Stunt Scooter,"zinc, 6983949, havoc, stunt, scooter","This quality scooter is perfect for showing off your skills at the skate park. Featuring alloy core wheels, ABEC 7 bearings, pro-style seagull bars and a double stack clamp, the Havoc is built for practicing your stunts. Alloy core high bounce pu wheels. Pro style seagull bars. Rear fender brake. Double stack clamp. Abec 7 bearings. 2 wheels. Anti-slip footplate. Easy grip handles. Rear footbrake. Size H82, W43cm. Weight 2.8kg. Maximum user weight: 100kg. Minimal assembly. For ages 8 years and over. WARNING(S): Not suitable for children under 3 years old. Only for domestic use. To be used under the direct supervision of an adult. Protective equipment (helmet, knee pads, elbow pads and wrist guards) should be worn, not to be used in traffic.",6983949,Zinc,6983949,5.03797E+12,,GBP,39.99,49.99,,,http://www.dpbolvw.net/click-8482294-10294381?url=http%3A%2F%2Fwww.argos.co.uk%2Fproduct%2F6983949,http://www.ftjcfx.com/image-8482294-10294381,http://media.4rgos.it/i/Argos/6983949_R_Z001A,Toys>Outdoor toys>Wheeled toys>Scooters,,,,,,,,,,,,,,yes,no,yes,,,
argos.co.uk,http://www.argos.co.uk,Product Catalogue,16:24.4,Zinc Volt XT2 Electric Scooter,"zinc, 6985480, volt, xt2, electric, scooter","The Volt XT2 is the perfect ride, whether youre a sit down racer or a stand up rider. This twist-and-go electric scooter can reach speeds of up to 10mph and has a detachable saddle to suit your mood. The lightweight lead acid battery, slim line deck and maintenance free motor makes this electric scooter agile and easy-to-use ; its even foldable for storage. With a dragster style rear wheel and up to 1 hour of run time, youll be leaving your competition in the dust. Speeds up to 10mph. Removable saddle for a comfortable ride. Lightweight design with ultra slim line deck. Dragster style wheels. Thumb trigger twist n; go acceleration. 2 wheels. Folds for storage. Anti-slip footplate. Easy grip handles. Size H95, W41cm. Weight 10.5kg. Maximum user weight: 70kg. Minimal assembly. Batteries required: 1 x rechargeable (included). For ages 8 years and over. WARNING(S): Not suitable for children under 3 years old. Only for domestic use. To be used under the direct supervision of an adult. Protective equipment (helmet, knee pads, elbow pads and wrist guards) should be worn, not to be used in traffic.",6985480,Zinc,6985480,5.03797E+12,,GBP,129.99,149.99,,,http://www.tkqlhce.com/click-8482294-10294381?url=http%3A%2F%2Fwww.argos.co.uk%2Fproduct%2F6985480,http://www.ftjcfx.com/image-8482294-10294381,http://media.4rgos.it/i/Argos/6985480_R_Z001A,Toys>Outdoor toys>Wheeled toys>Scooters,,,,,,,,,,,,,,yes,no,yes,,,
argos.co.uk,http://www.argos.co.uk,Product Catalogue,16:24.4,Zinc Smart A Power Board,"zinc, 6986207, smart, power, board","The sleek Smart A power board puts the power under your feet. You can reach speeds of 8mph with just a tilt of your toes and travel up to 20km in one go. You can even take on inclines of up to 20 degrees, while battery and balance indicators make sure youre always in charge of your ride. Please note that customers are only able to purchase a maximum of 2 Hoverboards whilst in the 3 for 2 promotion. Speeds up to 8mph. Capable of up to 20 degree hill climbs. Balance and battery level indicators. 6.5 inch rubber tyre motor wheels. Up to 20km range. Size H18.5, W58.4, D17.8cm. Weight 10kg. Maximum user weight 100kg. Fully assembled. Batteries required: 1 x Li-Ion (included) plus . For ages 14 years and over. WARNING(S): Not suitable for children under 3 years old. Only for domestic use. To be used under the direct supervision of an adult. Protective equipment (helmet, knee pads, elbow pads and wrist guards) should be worn, not to be used in traffic.",6986207,Zinc,6986207,5.03797E+12,,GBP,369.99,369.99,,,http://www.tkqlhce.com/click-8482294-10294381?url=http%3A%2F%2Fwww.argos.co.uk%2Fproduct%2F6986207,http://www.ftjcfx.com/image-8482294-10294381,http://media.4rgos.it/i/Argos/6986207_R_Z001A,Toys>Outdoor toys>Wheeled toys>Hoverboards,,,,,,,,,,,,,,yes,no,no,,,
argos.co.uk,http://www.argos.co.uk,Product Catalogue,16:24.6,Zinc Volt XT Electric Scooter,"zinc, 6989455, volt, electric, scooter","The Volt XT is the perfect thrill ride, even for those as young as 8 years old. The combination of the slim line deck and gear box drive gives your electric scooter a sleek and speedy ride. The twist-and-go motor can get you up to 6mph but can still be used as a conventional inline scooter without power. The lightweight lead acid battery can last up to 1 hour of your scooting about. 2in1 function: can be used as a push scooter or electrically powered scooter. Lightweight design with ultra slim line deck. Speeds up to 6mph. 30w maintenance free motor with gear box drive. Thumb trigger twist n; go acceleration. 2 wheels. Anti-slip footplate. Easy grip handles. Size H83, W33.5cm. Weight 6kg. Maximum user weight: 50kg. Minimal assembly. Batteries required: 1 x rechargeable (included). For ages 8 years and over. WARNING(S): Not suitable for children under 3 years old. Only for domestic use. To be used under the direct supervision of an adult. Protective equipment (helmet, knee pads, elbow pads and wrist guards) should be worn, not to be used in traffic.",6989455,Zinc,6989455,5.03797E+12,,GBP,79.99,79.99,,,http://www.anrdoezrs.net/click-8482294-10294381?url=http%3A%2F%2Fwww.argos.co.uk%2Fproduct%2F6989455,http://www.ftjcfx.com/image-8482294-10294381,http://media.4rgos.it/i/Argos/6989455_R_Z001A,Toys>Outdoor toys>Wheeled toys>Scooters,,,,,,,,,,,,,,yes,no,yes,,,
argos.co.uk,http://www.argos.co.uk,Product Catalogue,16:24.6,Zinc Volt XT1 Electric Scooter,"zinc, 6990688, volt, xt1, electric, scooter","Race past the competition on the Volt XT1 as you reach speeds of up to 10mph. Push the power with the thumb trigger, twist-and-go on the accelerator and keep the fun going for up to an hour. The lightweight lead acid battery and slim line deck make the XT1 perfect for scooting circles around your friends, while the dragster style rear wheel will have you winning any race in style. Speeds up to 10mph. Lightweight design with ultra slim line deck. Thumb trigger twist n; go acceleration. Dragster style wheels. Folds for storage. 2 wheels. Folds for storage. Anti-slip footplate. Easy grip handles. Size H95, W41cm. Weight 9.5kg. Maximum user weight: 70kg. Minimal assembly. Batteries required: 1 x rechargeable . For ages 8 years and over. WARNING(S): Not suitable for children under 3 years old. Only for domestic use. To be used under the direct supervision of an adult. Protective equipment (helmet, knee pads, elbow pads and wrist guards) should be worn, not to be used in traffic.",6990688,Zinc,6990688,5.03797E+12,,GBP,109.99,119.99,,,http://www.dpbolvw.net/click-8482294-10294381?url=http%3A%2F%2Fwww.argos.co.uk%2Fproduct%2F6990688,http://www.ftjcfx.com/image-8482294-10294381,http://media.4rgos.it/i/Argos/6990688_R_Z001A,Toys>Outdoor toys>Wheeled toys>Scooters,,,,,,,,,,,,,,yes,no,yes,,,
argos.co.uk,http://www.argos.co.uk,Product Catalogue,16:25.3,Zinc Volt 200 Electric Scooter,"zinc, 7019740, volt, 200, electric, scooter","Up the power with the Volt 200. This hard-core electric scooter can reach up to 15mph. Its chunky front forks and air blown tyres combine with the aggressive dragster styling for a serious ride. The lead acid battery and chain driven motor allow you to spend up to an hour tearing up the tracks. Speeds up to 15mph. Air blown tyres and chunky front forks. Aggressive dragster styling. 150w chain driven motor. Twist n; go motorbike grip. 2 wheels. Folds for storage. Anti-slip footplate. Easy grip handles. Size H106, W42cm. Weight 16kg. Maximum user weight: 70kg. Minimal assembly. Batteries required: 1 x rechargeable (included). For ages 8 years and over. WARNING(S): Not suitable for children under 3 years old. Only for domestic use. To be used under the direct supervision of an adult. Protective equipment (helmet, knee pads, elbow pads and wrist guards) should be worn, not to be used in traffic.",7019740,Zinc,7019740,5.03797E+12,,GBP,179.99,199.99,,,http://www.dpbolvw.net/click-8482294-10294381?url=http%3A%2F%2Fwww.argos.co.uk%2Fproduct%2F7019740,http://www.ftjcfx.com/image-8482294-10294381,http://media.4rgos.it/i/Argos/7019740_R_Z001A,Toys>Outdoor toys>Wheeled toys>Scooters,,,,,,,,,,,,,,yes,no,yes,,,
argos.co.uk,http://www.argos.co.uk,Product Catalogue,16:25.6,Zinc Volt XT3 Electric Scooter,"zinc, 7027385, volt, xt3, electric, scooter","The Volt XT3 is a powerful ride, perfect for any young speedster. Reaching speeds up to 15mph, this twist-and-go electric scooter can put you way ahead of the competition. The slim line deck combined with the air blown front tyre and dragster style rear wheel give you a smooth ride. With a maintenance, free motor and 24V lead acid battery, you can keep on speeding for up to an hour at a time. Speeds up to 15mph. Air blown front tyre and chunky forks. Thumb trigger twist n; go acceleration. Dragster style rear wheel. Lightweight design with ultra slim line deck. 2 wheels. Folds for storage. Anti-slip footplate. Easy grip handles. Maximum user weight: 70kg. Minimal assembly. Batteries required: 1 x rechargeable (included). For ages 8 years and over. WARNING(S): Not suitable for children under 3 years old. Only for domestic use. To be used under the direct supervision of an adult. Protective equipment (helmet, knee pads, elbow pads and wrist guards) should be worn, not to be used in traffic.",7027385,Zinc,7027385,5.03797E+12,,GBP,159.99,179.99,,,http://www.dpbolvw.net/click-8482294-10294381?url=http%3A%2F%2Fwww.argos.co.uk%2Fproduct%2F7027385,http://www.ftjcfx.com/image-8482294-10294381,http://media.4rgos.it/i/Argos/7027385_R_Z001A,Toys>Outdoor toys>Wheeled toys>Scooters,,,,,,,,,,,,,,yes,no,yes,,,
argos.co.uk,http://www.argos.co.uk,Product Catalogue,16:25.8,Zinc Scorch Stunt Scooter,"zinc, 7031065, scorch, stunt, scooter","Watch the sparks fly with this sparking stunt scooter. For the young learner, this stunt scooter is sure to captivate your imagination. Learn to stunt while throwing sparks out every time you brake. Sparking brake. 100mm high bounce pu wheels. Abec 5 bearings. Dual stack clamp. Rear spring brake and includes 2 spare flints. 2 wheels. Anti-slip footplate. Easy grip handles. Rear footbrake. Size H82, W43cm. Weight 2.8kg. Maximum user weight: 60kg. Minimal assembly. For ages 6 years and over. WARNING(S): Not suitable for children under 3 years old. Only for domestic use. To be used under the direct supervision of an adult. Protective equipment (helmet, knee pads, elbow pads and wrist guards) should be worn, not to be used in traffic.",7031065,Zinc,7031065,5.03797E+12,,GBP,29.99,34.99,,,http://www.dpbolvw.net/click-8482294-10294381?url=http%3A%2F%2Fwww.argos.co.uk%2Fproduct%2F7031065,http://www.ftjcfx.com/image-8482294-10294381,http://media.4rgos.it/i/Argos/7031065_R_Z001A,Toys>Outdoor toys>Wheeled toys>Scooters,,,,,,,,,,,,,,yes,no,yes,,,
argos.co.uk,http://www.argos.co.uk,Product Catalogue,16:26.0,Zinc 30 Inch Longboard,"zinc, 7035016, inch, longboard","Perfectly sized for cruising, this 30-inch longboard will carve up the streets as you learn the ropes. It has metal trucks, PVC wheels and ABEC 7 bearings to provide you with a super smooth ride. 30x8in cruising longboard. Metal trucks and pvc wheels. Smooth carving action with abec 7 bearings. Made of wood. Aluminium trucks. Abec 7 bearings. W20.3, D76cm. Maximum user weight: 50kg. For ages 5 years and over. WARNING(S): Not suitable for children under 3 years old. Only for domestic use. To be used under the direct supervision of an adult. Protective equipment (helmet, knee pads, elbow pads and wrist guards) should be worn, not to be used in traffic.",7035016,Zinc,7035016,5.03797E+12,,GBP,19.99,19.99,,,http://www.jdoqocy.com/click-8482294-10294381?url=http%3A%2F%2Fwww.argos.co.uk%2Fproduct%2F7035016,http://www.ftjcfx.com/image-8482294-10294381,http://media.4rgos.it/i/Argos/7035016_R_Z001A,Toys>Outdoor toys>Wheeled toys>Skateboards,,,,,,,,,,,,,,yes,no,yes,,,
argos.co.uk,http://www.argos.co.uk,Product Catalogue,16:28.6,Zinc Smart Kart,"zinc, 7197837, smart, kart","For those seeking a whole new experience, switch up the way you ride with the Smart Kart. Simply clip it over any power board (excluding self balancing boards) and then take your racing position. Adjustable footrests and easy control levers give you a smooth ride and the race style bucket seat brings the race to life. Universal fit to any power board (excluding self balancing boards). Length adjustable footrests. Race style bucket seat. Easy lever control racing. Front castor wheel for speedy manoeuvrability. Long back support. Easy grip handles. Size H44.5, W57, D78cm. Weight 6.2kg. Maximum user weight 100kg. Minimal assembly. (not included) plus (not included). For ages 13 years and over. WARNING(S): Not suitable for children under 3 years old. Only for domestic use. To be used under the direct supervision of an adult. Protective equipment (helmet, knee pads, elbow pads and wrist guards) should be worn, not to be used in traffic.",7197837,Zinc,7197837,5.03797E+12,,GBP,99.99,99.99,,,http://www.kqzyfj.com/click-8482294-10294381?url=http%3A%2F%2Fwww.argos.co.uk%2Fproduct%2F7197837,http://www.ftjcfx.com/image-8482294-10294381,http://media.4rgos.it/i/Argos/7197837_R_Z001A,Toys>Outdoor toys>Wheeled toys>Hoverboards,,,,,,,,,,,,,,yes,no,yes,,,
argos.co.uk,http://www.argos.co.uk,Product Catalogue,16:29.7,Zinc Tri to Inline Scooter,"zinc, 7249211, tri, inline, scooter","The new Tri To Inline scooter by Zinc is designed with an easy interchangeable function with no tools required, converted by easily swapping out the rear wheel component. Soft foam grips provide comfort for even the littlest of hands. This scooter can grow with little ones from age 2+ so its perfect for development and boosting a childs confidence as they learn to ride. Mud guards in the tri-scooter mode and a rear footbrake in the inline scooter mode. PVC wheels. Stable and sturdy fixed height handlebars. Soft foam grips. 3 wheels. Anti-slip footplate. Easy grip handles. Rear footbrake. Size H75, W24cm. Weight 2kg. Maximum user weight: 20kg. Minimal assembly. For ages 2 years and over. WARNING(S): Only for domestic use. To be used under the direct supervision of an adult. Protective equipment (helmet, knee pads, elbow pads and wrist guards) should be worn, not to be used in traffic.",7249211,Zinc,7249211,5.03797E+12,,GBP,24.99,24.99,,,http://www.anrdoezrs.net/click-8482294-10294381?url=http%3A%2F%2Fwww.argos.co.uk%2Fproduct%2F7249211,http://www.ftjcfx.com/image-8482294-10294381,http://media.4rgos.it/i/Argos/7249211_R_Z001A,Toys>Outdoor toys>Wheeled toys>Scooters,,,,,,,,,,,,,,yes,no,yes,,,
argos.co.uk,http://www.argos.co.uk,Product Catalogue,16:30.6,Zinc Outbreak Pro Stunt Scooter,"zinc, 7343186, outbreak, pro, stunt, scooter","This professional stunt scooter gives you seagull bars, 2 interchangeable stunt pegs, a triple stack clamp, high spec wheels alloy core wheels and ABEC 7 bearings. The finishing details show off the quality of this stunt scooter with an engraved fender brake and front forks and a matte grey finish. 2 interchangeable stunt pegs. Alloy core high bounce pu wheels with abec 7 bearings. Engraved fender brake and front forks. Triple stack clamp. Pro style seagull bars. 2 wheels. Anti-slip footplate. Easy grip handles. Rear footbrake. 2 stunt pegs included. Size H82, W43cm. Weight 2.9kg. Maximum user weight: 100kg. Minimal assembly. For ages 8 years and over. WARNING(S): Not suitable for children under 3 years old. To be used under the direct supervision of an adult. Protective equipment (helmet, knee pads, elbow pads and wrist guards) should be worn, not to be used in traffic.",7343186,zinc,7343186,5.03797E+12,,GBP,39.99,39.99,,,http://www.kqzyfj.com/click-8482294-10294381?url=http%3A%2F%2Fwww.argos.co.uk%2Fproduct%2F7343186,http://www.ftjcfx.com/image-8482294-10294381,http://media.4rgos.it/i/Argos/7343186_R_Z001A,Toys>Outdoor toys>Wheeled toys>Scooters,,,,,,,,,,,,,,yes,no,yes,,,
argos.co.uk,http://www.argos.co.uk,Product Catalogue,16:31.0,Zinc Smart X Hoverboard,"zinc, 7360255, smart, hoverboard","Zinc Smart X power board with front LED lights, features a 25.2v 4.3ah Lithium -Ion rechargeable battery which reaches speeds of up to 7.5mph and with a riding range of up to 20km in one ride, even on inclines of up to 15. With its rubber grip footpads, itll be a smooth and secure journey all the way. Please note that customers are only able to purchase 2 Hoverboards whilst in the 3 for 2 promotion. 25.2v 4.3ah lithium -ion rechargeable battery reaches speeds of up to 7.5mph and with a riding range of up to 20km. This board passes all necessary uk, european and us safety requirements. Features front led lights. Fast recharge time of only 3 hours. Wide wheels. Size H17, W59, D19cm. Weight 9.5kg. Maximum user weight 120kg. Supplied assembled. Batteries required: 1 x Li-Ion (included) plus . For ages 14 years and over. WARNING(S): Not suitable for children under 3 years old. To be used under the direct supervision of an adult. Protective equipment (helmet, knee pads, elbow pads and wrist guards) should be worn, not to be used in traffic. This toy does not provide protection.",7360255,Zinc,7360255,5.03797E+12,,GBP,249.99,249.99,,,http://www.jdoqocy.com/click-8482294-10294381?url=http%3A%2F%2Fwww.argos.co.uk%2Fproduct%2F7360255,http://www.ftjcfx.com/image-8482294-10294381,http://media.4rgos.it/i/Argos/7360255_R_Z001A,Toys>Outdoor toys>Wheeled toys>Hoverboards,,,,,,,,,,,,,,yes,no,no,,,
argos.co.uk,http://www.argos.co.uk,Product Catalogue,16:36.3,Zinc Adjustable Quad Skates,"zinc, 7597073, adjustable, quad, skates","These Zinc Adjustable Quad Skates are bound to be a hit when you take to the streets to race around and show off your moves. They are comfortable and easy to adjust so you can feel comfortable as you zoom out with your friends. The front bumper on the front helps you to stop easily and safely before you shoot off again. No tools required. Easily adjustable skates from junior size 13-03. PVC wheels. Padded liner for extra comfort and fit. Front stoppers. Easy to adjust security ratchet straps. Quad skates. Shoe size: 13-03. Cushion lining for comfort. Weight 2kg. Maximum user weight: 50kg. For ages 5 years and over. WARNING(S): Not suitable for children under 3 years old. To be used under the direct supervision of an adult. Protective equipment (helmet, knee pads, elbow pads and wrist guards) should be worn, not to be used in traffic. This toy does not provide protection.",7597073,Zinc,7597073,5.03797E+12,,GBP,29.99,29.99,,,http://www.kqzyfj.com/click-8482294-10294381?url=http%3A%2F%2Fwww.argos.co.uk%2Fproduct%2F7597073,http://www.ftjcfx.com/image-8482294-10294381,http://media.4rgos.it/i/Argos/7597073_R_Z001A,Toys>Outdoor toys>Wheeled toys>Skates and inline skates,,,,,,,,,,,,,,yes,no,yes,,,
argos.co.uk,http://www.argos.co.uk,Product Catalogue,16:37.7,Zinc Adjustable Inline Skates,"zinc, 7909867, adjustable, inline, skates","You will love zooming around with your friends on these awesome Zinc adjustable inline skates. Theyre not only easy to adjust but are really comfortable so the only thing you have to worry about is having fun. The back bumper helps you to slow down and stop before you race away again on your next adventure. Easily adjustable skates from junior size 13-03. PVC wheels. Padded liner for extra comfort and fit. Rear brake blocks to help build confidence during the early stages of learning to skate. Easy to adjust security ratchet straps. Inline skates. Shoe size: 13-03. Cushion lining for comfort. Weight 2kg. Maximum user weight: 50kg. For ages 5 years and over. WARNING(S): Not suitable for children under 3 years old. To be used under the direct supervision of an adult. Protective equipment (helmet, knee pads, elbow pads and wrist guards) should be worn, not to be used in traffic. This toy does not provide protection.",7909867,Zinc,7909867,5.03797E+12,,GBP,24.99,24.99,,,http://www.tkqlhce.com/click-8482294-10294381?url=http%3A%2F%2Fwww.argos.co.uk%2Fproduct%2F7909867,http://www.ftjcfx.com/image-8482294-10294381,http://media.4rgos.it/i/Argos/7909867_R_Z001A,Toys>Outdoor toys>Wheeled toys>Skates and inline skates,,,,,,,,,,,,,,yes,no,yes,,,
argos.co.uk,http://www.argos.co.uk,Product Catalogue,16:40.5,Zinc Ceres Hanging Outdoor Wall Lantern - Black,"zinc, 8046815, ceres, hanging, outdoor, wall, lantern, black","This traditional outdoor wall lantern is great for creating a classic, Victorian style. Featuring 4 bevelled glass panels, the light glows brightly from all sides. And, its finished in a durable powder coating ; helping it withstand the elements. Theres a hole in the bottom to make changing the bulb easy. IP rating 23. Size H30, W10, D15cm. Suitable for use with low energy bulbs. Bulbs required 1 x ES 42W halogen eco classic bulb(s) or 1 x 7W LED bulb(s) (not included).",8046815,Zinc,8046815,5.02002E+12,,GBP,19.99,19.99,,,http://www.anrdoezrs.net/click-8482294-10294381?url=http%3A%2F%2Fwww.argos.co.uk%2Fproduct%2F8046815,http://www.ftjcfx.com/image-8482294-10294381,http://media.4rgos.it/i/Argos/8046815_R_Z001A,Home and garden>Lighting>Outdoor lighting>Wall lights and lanterns,,,,,,,,,,,,,,yes,no,yes,,,
argos.co.uk,http://www.argos.co.uk,Product Catalogue,16:41.0,Zinc Artemis Outdoor Wall Lantern - Brushed Silver,"zinc, 8058243, artemis, outdoor, wall, lantern, brushed, silver","This modern outdoor wall lantern features a sleek brushed silver finish and pristine glass panels to reflect the most amount of light. Suitable for use with low energy bulbs, its a great energy saver. And it has a quirky bell shape, for a unique, contemporary style. IP rating 44. Energy class AA. Size H24, W21, D10cm. Suitable for use with low energy bulbs. Bulbs required 1 x ES 60W GLS bulb(s) or 1 x 10W ES LED 10W classic bulb(s) (not included).",8058243,Zinc,8058243,5.02002E+12,,GBP,34.99,34.99,,,http://www.dpbolvw.net/click-8482294-10294381?url=http%3A%2F%2Fwww.argos.co.uk%2Fproduct%2F8058243,http://www.ftjcfx.com/image-8482294-10294381,http://media.4rgos.it/i/Argos/8058243_R_Z001A,Home and garden>Lighting>Outdoor lighting>Wall lights and lanterns,,,,,,,,,,,,,,yes,no,yes,,,
