<?xml version="1.0" encoding="utf-8"?>
<!-- Generator: Adobe Illustrator 16.0.0, SVG Export Plug-In . SVG Version: 6.00 Build 0)  -->
<!DOCTYPE svg PUBLIC "-//W3C//DTD SVG 1.1//EN" "http://www.w3.org/Graphics/SVG/1.1/DTD/svg11.dtd">
<svg version="1.1" id="Layer_1" xmlns="http://www.w3.org/2000/svg" xmlns:xlink="http://www.w3.org/1999/xlink" x="0px" y="0px"
	 width="81.427px" height="81.427px" viewBox="0 0 81.427 81.427" enable-background="new 0 0 81.427 81.427" xml:space="preserve">
<line fill="none" stroke="#CAC9C9" stroke-width="28" stroke-miterlimit="10" x1="9.9" y1="71.527" x2="71.527" y2="9.9"/>
<line fill="none" stroke="#CAC9C9" stroke-width="28" stroke-miterlimit="10" x1="9.9" y1="9.899" x2="71.527" y2="71.526"/>
<rect display="none" fill="none" width="81.427" height="81.427"/>
</svg>
