<?xml version="1.0" encoding="utf-8"?>
<!-- Generator: Adobe Illustrator 16.0.0, SVG Export Plug-In . SVG Version: 6.00 Build 0)  -->
<!DOCTYPE svg PUBLIC "-//W3C//DTD SVG 1.1//EN" "http://www.w3.org/Graphics/SVG/1.1/DTD/svg11.dtd">
<svg version="1.1" id="Layer_1" xmlns="http://www.w3.org/2000/svg" xmlns:xlink="http://www.w3.org/1999/xlink" x="0px" y="0px"
	 width="420.8px" height="331.2px" viewBox="0 0 420.8 331.2" enable-background="new 0 0 420.8 331.2" xml:space="preserve">
<g>
	<defs>
		<rect id="SVGID_1_" width="420.8" height="331.2"/>
	</defs>
	<clipPath id="SVGID_2_">
		<use xlink:href="#SVGID_1_"  overflow="visible"/>
	</clipPath>
	<path clip-path="url(#SVGID_2_)" fill="#2DC5F4" d="M373.601,37.601h-66.4v-0.8c0-10-4-19.6-10.8-26c-6.8-6.8-16-10.8-26-10.8h-120
		c-10.4,0-19.6,4-26.4,10.8c-6.8,6.8-10.8,16-10.8,26v0.8h-66c-13.2,0-24.8,5.2-33.2,14C5.6,60,0,72,0,84.801v199.2
		c0,13.198,5.2,24.8,14,33.198c8.4,8.401,20.4,14,33.2,14h326.4c13.199,0,24.8-5.198,33.199-14c8.4-8.398,14-20.398,14-33.198
		v-199.2c0-13.2-5.199-24.8-14-33.2C398.4,42.801,386.8,37.601,373.601,37.601 M399.601,284.001c0,7.198-2.801,13.6-7.602,18.398
		c-4.799,4.8-11.199,7.602-18.398,7.602H47.2c-7.2,0-13.6-2.802-18.4-7.602c-4.8-4.799-7.6-11.2-7.6-18.398v-199.2
		c0-7.2,2.8-13.6,7.6-18.401c4.8-4.799,11.2-7.599,18.4-7.599h77.2c6,0,10.8-4.8,10.8-10.8V36.399c0-4.399,1.6-8.399,4.4-11.199
		c2.8-2.801,6.8-4.4,11.2-4.4h119.6c4.399,0,8.399,1.599,11.2,4.4c2.8,2.8,4.398,6.8,4.398,11.199V48c0,6,4.801,10.8,10.801,10.8
		h77.199c7.201,0,13.602,2.8,18.401,7.599c4.8,4.801,7.599,11.201,7.599,18.401v199.2H399.601z"/>
	<path clip-path="url(#SVGID_2_)" fill="#2DC5F4" d="M210.4,86c-27.201,0-52,11.2-69.6,28.801c-18,18-28.8,42.399-28.8,69.599
		c0,27.2,11.199,52,28.8,69.602c18,18,42.399,28.8,69.6,28.8c27.2,0,52-11.201,69.599-28.8c18-18,28.802-42.401,28.802-69.602
		c0-27.2-11.2-52-28.802-69.599C262.4,97.2,237.601,86,210.4,86 M264.801,239.2c-14,13.601-33.2,22.399-54.4,22.399
		c-21.201,0-40.4-8.799-54.4-22.399c-14-14-22.4-33.199-22.4-54.399c0-21.201,8.8-40.401,22.4-54.401c14-14,33.199-22.4,54.4-22.4
		c21.2,0,40.4,8.801,54.4,22.4c14,14,22.398,33.2,22.398,54.401C287.601,206.001,278.801,225.2,264.801,239.2"/>
	<path clip-path="url(#SVGID_2_)" fill="#2DC5F4" d="M352.801,85.6c10.823,0,19.6,8.775,19.6,19.6s-8.776,19.6-19.6,19.6
		c-10.825,0-19.602-8.775-19.602-19.6S341.976,85.6,352.801,85.6"/>
</g>
</svg>
