<?xml version="1.0" encoding="utf-8"?>
<!-- Generator: Adobe Illustrator 16.0.0, SVG Export Plug-In . SVG Version: 6.00 Build 0)  -->
<!DOCTYPE svg PUBLIC "-//W3C//DTD SVG 1.1//EN" "http://www.w3.org/Graphics/SVG/1.1/DTD/svg11.dtd">
<svg version="1.1" id="Layer_1" xmlns="http://www.w3.org/2000/svg" xmlns:xlink="http://www.w3.org/1999/xlink" x="0px" y="0px"
	 width="11.199px" height="11.199px" viewBox="0 0 11.199 11.199" enable-background="new 0 0 11.199 11.199" xml:space="preserve">
<g>
	<path fill="#949494" d="M11.199,1.121L10.078,0L5.602,4.48L1.121,0L0,1.121l4.48,4.48L0,10.078l1.121,1.121l4.481-4.48l4.476,4.48
		l1.121-1.121l-4.48-4.477L11.199,1.121z M11.199,1.121"/>
</g>
</svg>
